94050,1150.0,111,2019,5,9,3,0
106750,990.0,118,2017,1,13,4,0
40400,1050.0,41,2021,6,27,6,1
68310,990.0,69,2017,4,27,3,0
74250,990.0,77,2018,7,31,1,0
79470,990.0,83,2018,9,12,2,0
40900,1050.0,42,2021,6,28,0,0
66110,990.0,71,2017,5,31,2,0
39600,990.0,40,2018,5,30,2,0
31680,990.0,32,2020,8,14,4,0
91080,990.0,92,2018,3,14,2,0
57590,990.0,61,2018,5,6,6,1
58040,990.0,64,2017,8,12,5,1
78150,1050.0,80,2021,10,3,6,1
76277,990.0,79,2020,10,23,4,0
102907,1100.0,95,2021,12,25,5,1
90090,990.0,91,2017,7,7,4,0
33280,990.0,34,2020,8,23,6,1
78737,1100.0,75,2021,10,22,4,0
109959,1150.0,111,2019,12,11,2,0
88560,990.0,92,2018,8,3,4,0
76132,1110.0,79,2019,4,18,3,0
78210,990.0,79,2017,4,29,5,1
58317,1050.0,57,2021,8,21,5,1
98640,990.0,106,2018,2,25,6,1
34650,1150.0,35,2020,4,18,5,1
86130,990.0,87,2018,3,10,5,1
60780,990.0,66,2017,9,5,1,0
87131,1050.0,85,2021,2,22,0,0
70647,990.0,72,2020,10,21,2,0
47150,1150.0,41,2019,7,8,0,0
66843,990.0,73,2020,9,23,2,0
27720,1150.0,28,2020,5,21,3,0
46500,1050.0,50,2021,9,17,4,0
65880,990.0,68,2018,10,20,5,1
100890,990.0,104,2019,1,24,3,0
77220,990.0,78,2019,3,9,5,1
48520,990.0,54,2021,1,10,6,1
76691,990.0,81,2020,10,29,3,0
28710,990.0,29,2020,7,5,6,1
50490,1150.0,51,2020,5,14,3,0
80690,1050.0,78,2021,3,2,1,0
59790,990.0,65,2017,3,13,0,0
68320,990.0,74,2020,12,12,5,1
63140,990.0,68,2017,7,29,5,1
65390,1150.0,57,2019,10,26,5,1
65550,1150.0,57,2019,6,14,4,0
47260,990.0,50,2018,4,29,6,1
75480,990.0,82,2017,11,14,1,0
66110,990.0,71,2017,2,3,4,0
69750,1050.0,72,2021,9,22,2,0
44250,990.0,47,2017,7,30,6,1
94300,1150.0,82,2020,1,2,3,0
72430,990.0,77,2017,5,2,1,0
84050,1150.0,83,2019,7,26,4,0
44060,990.0,47,2017,5,21,6,1
50900,1100.0,49,2021,11,11,3,0
83000,1100.0,76,2021,10,25,0,0
87570,990.0,91,2018,5,4,4,0
74800,1100.0,68,2022,1,23,6,1
67710,990.0,73,2017,8,26,5,1
91303,1150.0,90,2019,12,18,2,0
52085,1050.0,51,2021,5,3,0,0
63250,1150.0,55,2019,7,3,2,0
60550,1050.0,63,2021,7,1,3,0
108524,990.0,112,2018,12,13,3,0
94050,990.0,95,2017,12,30,5,1
30690,990.0,31,2020,7,4,5,1
34650,990.0,35,2020,7,11,5,1
45540,990.0,46,2019,3,18,0,0
44550,990.0,45,2020,8,4,1,0
52470,990.0,53,2020,8,12,2,0
69660,990.0,72,2018,9,27,3,0
120780,990.0,122,2017,4,30,6,1
77220,990.0,78,2019,3,8,4,0
43870,990.0,47,2020,8,28,4,0
57810,990.0,63,2017,5,8,0,0
51390,990.0,53,2018,8,6,0,0
80937,1150.0,90,2019,4,29,0,0
88580,990.0,96,2017,10,21,5,1
105930,990.0,107,2019,2,13,2,0
45470,990.0,49,2017,6,7,2,0
138361,990.0,145,2019,1,5,5,1
65550,1150.0,57,2019,6,9,6,1
71300,1150.0,62,2019,10,20,6,1
57542,990.0,63,2020,9,28,0,0
69660,990.0,72,2018,9,5,2,0
20790,990.0,21,2020,6,22,0,0
70020,990.0,72,2018,9,25,1,0
70550,1050.0,71,2021,9,19,6,1
86250,1150.0,75,2020,1,3,4,0
69990,1150.0,61,2019,7,1,0,0
73880,990.0,80,2017,1,16,0,0
86760,990.0,90,2018,11,1,3,0
72270,990.0,73,2018,11,13,1,0
92070,990.0,93,2019,2,20,2,0
44934,1050.0,48,2021,4,27,1,0
45540,990.0,46,2018,5,26,5,1
71350,1150.0,73,2019,8,22,3,0
48150,990.0,50,2018,7,4,2,0
62910,990.0,67,2017,3,28,1,0
24150,1150.0,21,2020,4,13,0,0
56520,990.0,61,2020,11,10,1,0
30690,1150.0,31,2020,5,3,6,1
56700,1150.0,56,2019,8,24,5,1
55440,990.0,56,2019,3,6,2,0
128410,1100.0,117,2021,12,30,3,0
70610,990.0,79,2020,9,5,5,1
40590,990.0,41,2020,7,23,3,0
59400,990.0,60,2019,4,13,5,1
56584,1050.0,57,2021,5,26,2,0
56821,1050.0,55,2021,4,30,4,0
89716,1100.0,89,2021,12,16,3,0
75420,990.0,78,2018,7,21,5,1
46470,1050.0,48,2021,3,23,1,0
95130,990.0,103,2020,12,29,1,0
63360,990.0,64,2018,3,11,6,1
62100,1150.0,54,2019,6,15,5,1
21780,990.0,22,2020,6,24,2,0
59305,990.0,65,2020,10,6,1,0
59090,990.0,61,2020,10,27,1,0
72270,1150.0,73,2020,5,5,1,0
99990,990.0,101,2018,3,2,4,0
66700,1150.0,58,2020,1,5,6,1
82170,990.0,83,2018,11,22,3,0
66500,990.0,70,2018,5,21,0,0
91179,1100.0,84,2022,1,8,5,1
96570,990.0,99,2018,12,21,4,0
68170,990.0,75,2017,3,12,6,1
80190,990.0,81,2017,4,20,3,0
27190,990.0,29,2020,9,20,6,1
97040,990.0,108,2017,2,16,3,0
81083,1100.0,74,2021,10,18,0,0
91650,1150.0,87,2020,2,25,1,0
62100,1150.0,54,2019,11,7,3,0
49130,990.0,55,2017,5,23,1,0
59550,1150.0,65,2019,5,14,1,0
59800,1050.0,62,2021,7,8,3,0
73260,990.0,74,2018,3,22,3,0
145260,990.0,150,2019,1,3,3,0
110212,990.0,116,2019,1,19,5,1
55200,1150.0,48,2019,6,12,2,0
73960,990.0,82,2021,1,5,1,0
73260,990.0,74,2019,2,28,3,0
44550,990.0,45,2018,6,3,6,1
61470,990.0,64,2018,9,9,6,1
57420,990.0,58,2017,6,27,1,0
83160,990.0,86,2018,8,25,5,1
53480,990.0,56,2018,4,11,2,0
58650,1150.0,51,2019,7,7,6,1
58410,990.0,59,2019,2,18,0,0
69300,990.0,70,2018,3,5,0,0
56430,990.0,57,2018,6,20,2,0
45700,990.0,50,2017,5,18,3,0
106170,990.0,113,2017,2,20,0,0
49200,1150.0,48,2019,7,29,0,0
89100,990.0,90,2018,12,6,3,0
47250,990.0,49,2018,12,23,6,1
45390,990.0,47,2017,10,17,1,0
34960,990.0,38,2020,9,18,4,0
32670,990.0,33,2018,6,17,6,1
50750,1150.0,49,2019,10,3,3,0
45260,990.0,46,2018,4,10,1,0
67375,1100.0,62,2022,1,30,6,1
60390,990.0,61,2019,3,10,6,1
90090,990.0,91,2017,12,14,3,0
53760,990.0,56,2018,5,9,2,0
111430,990.0,121,2017,2,21,1,0
53010,990.0,57,2017,5,15,0,0
41660,990.0,44,2017,8,7,0,0
99990,990.0,101,2018,6,7,3,0
58799,1050.0,56,2021,7,31,5,1
96930,990.0,103,2018,5,20,6,1
40250,1150.0,35,2019,10,21,0,0
75240,990.0,76,2019,2,14,3,0
73961,990.0,77,2019,1,20,6,1
62570,990.0,68,2017,6,17,5,1
74250,990.0,75,2019,2,26,1,0
67940,990.0,74,2020,11,18,2,0
55650,1050.0,53,2021,8,11,2,0
77970,990.0,83,2018,1,23,1,0
37620,990.0,38,2018,6,9,5,1
47116,1100.0,43,2021,10,20,2,0
68310,990.0,69,2017,10,12,3,0
59560,990.0,64,2017,10,22,6,1
82640,990.0,90,2017,8,2,2,0
53460,990.0,54,2020,8,9,6,1
53460,990.0,54,2017,7,15,5,1
25740,990.0,26,2020,6,19,4,0
55440,990.0,56,2020,7,31,4,0
66450,1150.0,63,2019,8,9,4,0
56880,990.0,59,2018,6,30,5,1
55140,990.0,58,2017,11,13,0,0
79200,990.0,80,2019,3,4,0,0
50220,990.0,52,2018,9,11,1,0
73260,1150.0,74,2020,4,30,3,0
83758,1150.0,88,2019,9,18,2,0
81400,1100.0,74,2021,10,30,5,1
58080,990.0,65,2021,1,23,5,1
28710,990.0,29,2020,7,21,1,0
64250,1150.0,65,2019,12,22,6,1
85410,1100.0,82,2021,11,12,4,0
104700,990.0,110,2018,4,13,4,0
74150,1150.0,73,2019,12,21,5,1
44940,990.0,50,2021,1,17,6,1
71300,1150.0,62,2019,11,1,4,0
63900,990.0,66,2018,7,30,0,0
63250,1150.0,55,2019,10,10,3,0
63090,990.0,66,2018,8,11,5,1
98630,990.0,105,2018,2,23,4,0
57420,990.0,58,2018,6,13,2,0
123641,990.0,128,2019,1,11,4,0
33660,1150.0,34,2020,5,29,4,0
72870,990.0,77,2018,4,17,1,0
67250,990.0,71,2017,3,29,2,0
80500,1150.0,70,2019,6,7,4,0
51750,1150.0,45,2020,1,13,0,0
85140,990.0,86,2018,3,30,4,0
71880,990.0,76,2018,1,22,0,0
87290,990.0,91,2018,4,3,1,0
113446,990.0,118,2020,11,7,5,1
33660,990.0,34,2019,3,24,6,1
31680,1150.0,32,2020,5,23,5,1
79590,990.0,85,2017,9,12,1,0
83160,990.0,84,2019,2,24,6,1
81800,1150.0,76,2020,2,29,5,1
71480,990.0,77,2021,1,7,3,0
58085,1050.0,56,2021,5,10,0,0
40805,1050.0,42,2021,1,30,5,1
63814,1050.0,61,2021,2,4,3,0
50400,1050.0,48,2021,7,14,2,0
44550,990.0,45,2018,6,19,1,0
72218,1100.0,74,2021,12,8,2,0
132830,990.0,143,2017,1,27,4,0
62090,990.0,63,2018,2,27,1,0
85650,1150.0,83,2020,3,1,6,1
96030,990.0,97,2018,11,14,2,0
133650,990.0,135,2018,11,16,4,0
55440,990.0,56,2018,6,5,1,0
64860,990.0,71,2020,12,28,0,0
127200,1150.0,144,2019,5,1,2,0
122490,990.0,126,2018,12,14,4,0
67350,990.0,71,2018,2,5,0,0
48510,990.0,49,2017,9,28,3,0
74250,990.0,75,2018,3,3,5,1
58410,990.0,59,2018,3,19,0,0
67100,1100.0,61,2021,12,23,3,0
67016,1150.0,65,2019,8,12,0,0
63248,990.0,69,2020,11,22,6,1
96030,990.0,97,2018,1,7,6,1
69044,990.0,74,2021,1,27,2,0
46530,990.0,47,2020,8,15,5,1
62000,990.0,68,2020,12,20,6,1
43935,1050.0,48,2021,4,22,3,0
86030,990.0,94,2017,2,17,4,0
96930,990.0,101,2018,7,12,3,0
32670,990.0,33,2020,6,26,4,0
77220,990.0,78,2018,12,10,0,0
83166,1100.0,76,2021,10,10,6,1
64430,990.0,67,2017,5,5,4,0
59400,990.0,60,2019,4,15,0,0
65000,1150.0,69,2019,9,5,3,0
100430,1150.0,96,2020,1,31,4,0
48120,1050.0,48,2021,1,31,6,1
60390,990.0,61,2019,3,20,2,0
85140,990.0,86,2019,3,2,5,1
64650,1150.0,63,2019,7,17,2,0
48300,1150.0,42,2019,6,25,1,0
52750,1150.0,55,2019,9,4,2,0
68310,990.0,69,2019,4,6,5,1
64922,1100.0,64,2021,11,23,1,0
73600,1150.0,64,2019,12,28,5,1
46310,990.0,51,2021,1,16,5,1
21750,1050.0,23,2021,6,20,6,1
69900,990.0,74,2018,4,8,6,1
75240,990.0,76,2017,12,24,6,1
45620,990.0,48,2020,8,31,0,0
29900,1150.0,26,2020,4,9,3,0
59400,990.0,60,2017,7,10,0,0
64090,990.0,67,2018,5,12,5,1
43490,990.0,47,2020,9,13,6,1
70290,990.0,73,2018,8,2,3,0
64660,990.0,68,2017,5,6,5,1
18810,990.0,19,2020,6,15,0,0
59750,1050.0,65,2021,4,7,2,0
74250,990.0,75,2017,10,4,2,0
72270,990.0,73,2018,3,4,6,1
64740,990.0,70,2017,3,14,1,0
77050,1150.0,67,2019,12,29,6,1
61500,1050.0,62,2021,9,16,3,0
48510,990.0,49,2017,7,5,2,0
56401,1050.0,54,2021,8,6,4,0
91210,990.0,100,2017,2,5,6,1
70350,1050.0,67,2021,7,18,6,1
67376,1100.0,62,2021,12,29,2,0
49393,990.0,50,2020,10,10,5,1
83160,990.0,84,2017,4,15,5,1
78220,990.0,84,2020,12,16,2,0
57500,1150.0,50,2019,7,6,5,1
29400,1050.0,28,2021,5,13,3,0
84300,1100.0,83,2021,12,15,2,0
53790,1100.0,53,2021,11,20,5,1
89800,990.0,98,2017,12,2,5,1
46000,1150.0,40,2019,10,13,6,1
49950,1050.0,51,2021,8,23,0,0
105930,990.0,107,2017,9,20,2,0
40590,990.0,41,2020,8,10,0,0
6734,1050.0,7,2021,3,27,5,1
73565,1100.0,67,2022,1,17,0,0
66330,990.0,67,2017,6,23,4,0
87120,990.0,88,2019,2,21,3,0
74490,990.0,81,2017,8,25,4,0
68120,990.0,71,2021,1,4,0,0
59700,1100.0,57,2021,11,24,2,0
67250,990.0,71,2020,12,22,1,0
62370,990.0,63,2017,10,11,2,0
69200,1150.0,72,2019,6,1,5,1
69837,1100.0,64,2021,10,13,2,0
91492,990.0,95,2019,1,4,4,0
60780,990.0,66,2017,10,29,6,1
35650,1150.0,31,2019,6,29,5,1
57420,990.0,58,2017,12,10,6,1
67400,1150.0,65,2019,10,5,5,1
57450,1150.0,53,2020,3,14,5,1
82150,1150.0,83,2019,9,12,3,0
68310,990.0,71,2018,9,30,6,1
39450,990.0,41,2020,8,24,0,0
29650,1150.0,27,2019,11,12,1,0
78200,1150.0,68,2020,1,10,4,0
54850,1050.0,47,2021,6,16,2,0
43634,1050.0,42,2021,5,11,1,0
55410,990.0,60,2020,9,9,2,0
42550,1150.0,37,2020,4,3,4,0
65700,990.0,67,2019,1,29,1,0
57750,1050.0,55,2021,8,3,1,0
75600,990.0,78,2018,10,25,3,0
102600,990.0,106,2018,8,24,4,0
54810,990.0,57,2018,7,2,0,0
97750,1150.0,85,2019,10,30,2,0
42570,990.0,43,2017,9,17,6,1
75250,1150.0,77,2019,9,20,4,0
74140,990.0,78,2018,2,10,5,1
36100,990.0,38,2021,1,3,6,1
26900,1050.0,28,2021,3,21,6,1
68930,990.0,75,2017,11,20,0,0
35350,1050.0,37,2021,3,24,2,0
57550,1050.0,60,2021,8,22,6,1
51030,990.0,55,2017,5,30,1,0
64900,1050.0,66,2021,9,4,5,1
31680,990.0,32,2019,4,7,6,1
70290,990.0,71,2019,4,4,3,0
84850,990.0,93,2017,2,10,4,0
86655,1100.0,90,2021,12,13,0,0
44600,1050.0,44,2021,9,2,3,0
52470,1150.0,53,2020,4,28,1,0
76200,1150.0,72,2019,8,14,2,0
67933,1100.0,62,2021,11,4,3,0
134055,1100.0,122,2022,1,2,6,1
93311,990.0,96,2019,1,25,4,0
58650,1150.0,51,2020,1,21,1,0
56110,1150.0,57,2020,5,9,5,1
63578,1050.0,61,2021,2,28,6,1
51832,990.0,54,2020,10,18,6,1
62370,990.0,63,2018,3,8,3,0
94650,1150.0,93,2019,7,15,0,0
71525,990.0,74,2020,10,26,0,0
73120,990.0,80,2017,9,6,2,0
48185,1050.0,49,2021,5,30,6,1
81900,1050.0,78,2021,10,6,2,0
55450,1050.0,57,2021,7,4,6,1
70490,990.0,76,2017,2,4,5,1
22400,1050.0,23,2021,4,18,6,1
64350,990.0,65,2017,7,23,6,1
104650,990.0,113,2017,3,26,6,1
73950,1150.0,71,2020,3,2,0,0
37510,990.0,38,2020,7,29,2,0
68450,1150.0,72,2019,9,17,1,0
58500,990.0,66,2020,9,1,1,0
47070,990.0,51,2020,9,7,0,0
61050,1150.0,67,2019,5,22,2,0
67940,990.0,74,2020,12,9,2,0
54664,1050.0,53,2021,3,7,6,1
67400,1050.0,69,2021,9,3,4,0
44550,1150.0,45,2020,5,6,2,0
107670,990.0,113,2018,4,27,4,0
45540,990.0,46,2019,3,27,2,0
61200,990.0,64,2018,7,15,6,1
63360,990.0,66,2018,8,16,3,0
107700,1100.0,107,2021,12,17,4,0
57890,1150.0,63,2019,4,24,2,0
63302,1150.0,61,2019,11,27,2,0
47200,1050.0,48,2021,5,27,3,0
47680,990.0,50,2018,4,22,6,1
121000,1100.0,110,2022,1,6,3,0
107316,1100.0,110,2021,12,11,5,1
67380,990.0,70,2019,4,16,1,0
58900,1050.0,58,2021,8,24,1,0
65340,990.0,66,2017,7,8,5,1
44550,990.0,45,2020,7,24,4,0
70150,1150.0,61,2020,1,24,4,0
97570,990.0,107,2017,5,27,5,1
78530,990.0,87,2020,12,11,4,0
75350,1150.0,85,2019,5,16,3,0
29700,990.0,30,2020,7,8,2,0
121770,990.0,123,2019,2,8,4,0
87440,990.0,92,2018,2,1,3,0
90410,990.0,99,2021,1,15,4,0
39600,1150.0,40,2020,6,1,0,0
51784,1050.0,50,2021,5,19,2,0
83160,990.0,84,2018,3,16,4,0
61380,990.0,62,2017,7,24,0,0
36450,1050.0,38,2021,9,12,6,1
81882,1100.0,83,2021,12,10,4,0
112880,990.0,124,2017,1,24,1,0
89720,990.0,96,2017,7,28,4,0
63600,1150.0,60,2019,7,19,4,0
31050,1150.0,27,2019,6,24,0,0
74140,990.0,78,2018,4,30,0,0
37832,1050.0,40,2021,4,1,3,0
70500,1100.0,70,2021,12,9,3,0
101321,990.0,105,2019,1,7,0,0
115390,990.0,125,2017,1,3,1,0
57500,1050.0,55,2021,2,20,5,1
88708,1150.0,84,2019,10,8,1,0
100980,990.0,102,2018,11,23,4,0
92739,1100.0,91,2021,12,19,6,1
75660,1150.0,83,2019,4,22,0,0
31050,1150.0,27,2020,3,22,6,1
39600,990.0,40,2020,6,12,4,0
76230,990.0,77,2017,12,12,1,0
76230,990.0,79,2018,9,13,3,0
77220,990.0,78,2018,11,28,2,0
65120,990.0,70,2017,8,20,6,1
62934,1150.0,58,2020,3,4,2,0
64695,1100.0,59,2022,1,25,1,0
68550,990.0,75,2017,6,1,3,0
80500,1100.0,80,2021,11,21,6,1
81180,990.0,82,2017,12,16,5,1
64530,990.0,67,2018,10,17,2,0
96655,1100.0,88,2022,1,24,0,0
83856,1150.0,85,2019,12,14,5,1
71964,1050.0,69,2021,2,24,2,0
75780,990.0,80,2017,6,2,4,0
61100,1150.0,74,2019,4,23,1,0
91080,990.0,92,2017,7,20,3,0
68310,990.0,69,2018,12,1,5,1
36700,1050.0,39,2021,3,31,2,0
25550,1050.0,27,2021,6,6,6,1
58306,990.0,60,2018,9,10,0,0
69300,990.0,70,2017,12,21,3,0
95000,1150.0,96,2019,11,19,1,0
85500,990.0,89,2018,9,1,5,1
81360,990.0,84,2018,9,20,3,0
46460,990.0,50,2017,10,28,5,1
57500,1150.0,50,2019,10,12,5,1
64800,1150.0,72,2019,5,11,5,1
97453,1150.0,99,2019,12,12,3,0
81700,1150.0,94,2019,5,13,0,0
39100,1150.0,34,2019,10,23,2,0
42550,1150.0,37,2020,4,6,0,0
60100,1100.0,55,2021,10,15,4,0
92110,1100.0,84,2022,1,11,1,0
109006,990.0,113,2019,1,18,4,0
67920,990.0,72,2018,1,25,3,0
84850,990.0,93,2017,2,2,3,0
91150,1150.0,89,2019,8,30,4,0
97920,990.0,102,2018,7,13,4,0
45850,990.0,49,2020,8,20,3,0
85150,1150.0,85,2020,2,3,0,0
57312,1050.0,61,2021,9,18,5,1
101108,1150.0,118,2019,5,18,5,1
34920,990.0,36,2018,10,28,6,1
62950,1050.0,64,2021,6,30,2,0
86082,1050.0,84,2021,2,9,1,0
64620,990.0,67,2018,8,1,2,0
79200,990.0,80,2017,9,26,1,0
75599,1050.0,72,2021,7,16,4,0
43830,990.0,45,2018,7,29,6,1
86110,990.0,96,2017,1,8,6,1
83160,990.0,84,2018,3,24,5,1
71350,1150.0,66,2019,10,4,4,0
67500,990.0,70,2018,6,26,1,0
22770,990.0,23,2020,7,17,4,0
98190,990.0,103,2018,9,22,5,1
58410,990.0,59,2017,10,15,6,1
70000,990.0,78,2020,12,23,2,0
76287,1050.0,74,2021,3,3,2,0
40900,1050.0,43,2021,6,14,0,0
103950,990.0,105,2018,3,9,4,0
32670,1150.0,33,2020,4,16,3,0
15840,990.0,16,2020,7,16,3,0
83933,1100.0,82,2021,12,18,5,1
31680,1150.0,32,2020,4,19,6,1
67320,990.0,68,2017,4,18,1,0
62610,1150.0,65,2019,8,26,0,0
79110,990.0,82,2018,9,23,6,1
97620,990.0,102,2018,5,18,4,0
49320,1050.0,55,2021,4,15,3,0
49019,990.0,51,2018,7,8,6,1
57550,1050.0,59,2021,8,26,3,0
55440,990.0,56,2017,7,12,2,0
44550,990.0,45,2020,8,11,1,0
43250,1050.0,45,2021,6,15,1,0
70355,1100.0,70,2021,11,19,4,0
73260,990.0,74,2017,7,2,6,1
64498,990.0,66,2020,11,3,1,0
75240,990.0,76,2019,3,29,4,0
72165,1100.0,66,2021,11,8,0,0
82950,1150.0,93,2019,5,4,5,1
32670,990.0,33,2020,7,27,0,0
93070,990.0,99,2017,1,22,6,1
68100,1150.0,66,2019,7,20,5,1
61600,1100.0,56,2021,11,7,6,1
46800,1150.0,48,2019,9,2,0,0
76590,990.0,86,2021,1,22,4,0
70150,990.0,77,2020,9,17,3,0
20790,990.0,21,2020,6,30,1,0
39530,990.0,43,2020,8,25,1,0
82797,990.0,86,2018,10,13,5,1
86220,990.0,94,2017,5,20,5,1
113640,990.0,124,2017,3,3,4,0
68050,990.0,71,2018,1,21,6,1
48060,990.0,50,2018,8,12,6,1
52860,990.0,58,2020,12,4,4,0
79200,990.0,80,2019,4,5,4,0
71550,1150.0,75,2019,9,30,0,0
69363,1100.0,64,2021,10,11,0,0
82000,1100.0,80,2021,12,2,3,0
59400,1100.0,54,2021,10,29,4,0
47520,990.0,48,2020,8,13,3,0
133150,990.0,141,2018,2,9,4,0
51480,990.0,52,2017,12,11,0,0
106290,990.0,109,2018,12,26,2,0
85322,1100.0,78,2021,11,5,4,0
98710,990.0,107,2017,1,4,2,0
138290,990.0,156,2017,1,7,5,1
39100,1150.0,34,2020,3,19,3,0
73150,990.0,77,2018,1,20,5,1
51260,990.0,56,2017,11,6,0,0
39650,1050.0,38,2021,7,28,2,0
57430,990.0,63,2020,9,10,3,0
89710,990.0,95,2018,2,18,6,1
53500,1050.0,55,2021,9,8,2,0
66965,1100.0,60,2021,11,9,1,0
47520,990.0,48,2017,4,9,6,1
74228,1050.0,79,2021,3,16,1,0
100460,990.0,108,2017,10,31,1,0
70870,990.0,76,2017,2,7,1,0
97784,990.0,101,2018,8,14,1,0
49750,1150.0,46,2019,12,25,2,0
46800,1050.0,49,2021,4,8,3,0
65340,990.0,66,2018,5,31,3,0
64400,1150.0,56,2020,1,23,3,0
83550,990.0,89,2017,10,26,3,0
93088,1100.0,85,2022,1,28,4,0
69200,1050.0,63,2021,7,20,1,0
35640,990.0,36,2020,7,30,3,0
83851,1050.0,87,2021,6,11,4,0
41580,990.0,42,2020,8,6,3,0
70290,990.0,71,2018,6,1,4,0
102590,990.0,109,2017,2,15,2,0
68400,1150.0,68,2020,3,9,0,0
74422,1050.0,72,2021,2,23,1,0
64800,1150.0,60,2020,2,19,2,0
88960,990.0,96,2017,2,27,0,0
78950,1150.0,77,2019,8,3,5,1
87990,990.0,98,2017,6,10,5,1
81484,1050.0,84,2021,5,31,0,0
54350,1050.0,52,2021,3,1,0,0
41999,1050.0,40,2021,5,17,0,0
49250,1150.0,47,2019,7,10,2,0
56160,990.0,58,2018,7,17,1,0
49450,1150.0,43,2019,6,30,6,1
64020,990.0,71,2020,8,30,6,1
56100,1100.0,51,2021,11,1,0,0
43335,1050.0,45,2021,6,13,6,1
51480,990.0,52,2020,6,9,1,0
46980,990.0,49,2018,10,16,1,0
75240,990.0,76,2017,4,6,3,0
48900,1050.0,51,2021,6,29,1,0
60900,1050.0,58,2021,7,29,3,0
65340,990.0,68,2018,8,4,5,1
67320,990.0,68,2019,4,10,2,0
147510,990.0,149,2017,4,28,4,0
82170,990.0,83,2017,9,18,0,0
56900,1050.0,58,2021,10,4,0,0
38508,1100.0,36,2021,12,27,0,0
89490,990.0,95,2017,1,9,0,0
62610,990.0,69,2017,8,8,1,0
148500,990.0,150,2018,1,3,2,0
63360,990.0,64,2017,7,16,6,1
24150,1150.0,21,2020,4,11,5,1
81122,1050.0,86,2021,3,12,4,0
112700,1150.0,98,2020,1,15,2,0
49950,1050.0,51,2021,9,13,0,0
68040,990.0,70,2018,9,14,4,0
54450,990.0,55,2018,3,25,6,1
37950,1150.0,33,2020,3,23,0,0
90000,990.0,96,2018,1,27,5,1
56000,1150.0,56,2019,8,18,6,1
51978,990.0,53,2020,10,31,5,1
59400,990.0,60,2017,7,17,0,0
54600,1050.0,52,2021,8,13,4,0
37950,1150.0,33,2020,3,30,0,0
59500,1150.0,58,2019,7,22,0,0
78603,1150.0,82,2019,12,7,5,1
21780,990.0,22,2020,6,23,1,0
44684,1050.0,43,2021,5,20,3,0
34650,990.0,35,2017,4,17,0,0
65270,990.0,69,2017,3,17,4,0
84700,1050.0,86,2021,9,30,3,0
78830,990.0,85,2017,1,12,3,0
101970,990.0,103,2019,2,3,6,1
97020,990.0,98,2017,12,28,3,0
42020,990.0,44,2018,4,15,6,1
72535,1100.0,69,2021,11,26,4,0
101520,990.0,106,2017,2,28,1,0
78570,990.0,81,2018,11,2,4,0
60390,990.0,61,2017,4,12,2,0
84900,990.0,90,2018,1,13,5,1
72270,990.0,75,2018,10,18,3,0
110880,990.0,112,2018,12,4,1,0
106920,990.0,108,2017,12,26,1,0
54800,1050.0,56,2021,9,6,0,0
86130,990.0,90,2018,10,30,1,0
61920,990.0,64,2018,7,18,2,0
96731,990.0,101,2018,8,8,2,0
64160,1150.0,72,2019,5,3,4,0
71510,990.0,73,2017,9,13,2,0
55750,990.0,59,2020,8,21,4,0
41280,990.0,44,2017,6,16,4,0
69300,1150.0,70,2019,11,20,2,0
70879,990.0,78,2020,10,1,3,0
59250,1050.0,61,2021,9,28,1,0
73040,1150.0,81,2019,4,20,5,1
79200,990.0,80,2018,3,15,3,0
63800,1150.0,64,2019,9,23,0,0
50400,1050.0,48,2021,8,12,3,0
71355,1100.0,65,2022,1,9,6,1
60900,1050.0,58,2021,7,22,3,0
49450,1150.0,43,2020,3,18,2,0
77700,1100.0,77,2021,12,12,6,1
39050,1050.0,41,2021,4,14,2,0
34350,990.0,37,2017,8,10,3,0
58650,1150.0,51,2020,1,14,1,0
67229,1100.0,62,2022,1,21,4,0
60350,1150.0,54,2019,10,7,0,0
73730,990.0,81,2017,3,27,0,0
57330,990.0,59,2018,8,17,4,0
33660,990.0,34,2020,7,15,2,0
71280,990.0,72,2019,3,15,4,0
54900,1150.0,52,2020,3,3,1,0
56700,1150.0,66,2019,5,26,6,1
109890,990.0,111,2017,10,6,4,0
68271,1100.0,66,2021,11,13,5,1
55980,990.0,60,2017,8,18,4,0
51480,1150.0,52,2020,5,25,0,0
56934,1150.0,54,2020,3,11,2,0
59500,1150.0,56,2020,3,10,1,0
87120,990.0,88,2018,11,20,1,0
60390,990.0,61,2018,3,26,0,0
61540,990.0,66,2017,3,22,2,0
74855,1100.0,69,2021,10,21,3,0
84950,1150.0,83,2019,9,6,4,0
64890,990.0,69,2017,3,7,1,0
8519,1050.0,9,2021,3,28,6,1
108000,1150.0,100,2019,11,15,4,0
57890,990.0,65,2017,11,1,2,0
48900,990.0,54,2017,8,9,2,0
29700,1150.0,30,2020,5,13,2,0
61650,1150.0,63,2019,7,27,5,1
70470,990.0,73,2018,7,23,0,0
48671,990.0,50,2018,7,5,3,0
137180,990.0,152,2017,1,2,0,0
51870,990.0,57,2020,9,4,4,0
72000,990.0,74,2018,10,5,4,0
65730,990.0,71,2017,3,1,2,0
69648,990.0,75,2020,11,13,4,0
91930,990.0,99,2017,9,8,4,0
81500,1150.0,87,2019,10,1,1,0
21400,990.0,22,2017,5,3,2,0
56800,1050.0,58,2021,9,7,1,0
64050,990.0,67,2017,8,3,3,0
45540,990.0,46,2020,8,8,5,1
91550,990.0,99,2017,1,29,6,1
58410,990.0,61,2018,7,10,1,0
75994,990.0,78,2019,1,27,6,1
59640,990.0,66,2020,12,1,1,0
79234,1050.0,82,2021,5,28,4,0
54450,990.0,55,2019,4,3,2,0
88110,990.0,89,2018,11,30,4,0
103403,1150.0,106,2019,12,3,1,0
94950,990.0,101,2018,2,11,6,1
47520,990.0,48,2020,7,2,3,0
81422,1100.0,75,2021,10,16,5,1
94500,990.0,97,2018,9,28,4,0
62514,990.0,68,2020,10,5,0,0
22770,990.0,23,2020,6,18,3,0
82170,990.0,83,2019,2,7,3,0
62100,1150.0,54,2019,10,15,1,0
49500,1150.0,50,2020,5,22,4,0
47450,990.0,51,2017,6,4,6,1
42350,1050.0,43,2021,9,10,4,0
36750,1050.0,35,2021,5,1,5,1
55750,990.0,59,2017,12,5,1,0
84150,990.0,85,2018,3,1,3,0
83100,990.0,92,2021,1,25,0,0
62555,1100.0,57,2022,1,26,2,0
32670,990.0,33,2020,7,7,1,0
41400,1150.0,36,2020,1,20,0,0
88600,1150.0,88,2019,11,26,1,0
50640,990.0,52,2018,4,16,0,0
75250,1150.0,77,2019,11,25,0,0
45250,1050.0,45,2021,9,26,6,1
74110,990.0,81,2020,11,25,2,0
58120,990.0,61,2020,11,9,0,0
59400,990.0,60,2017,4,4,1,0
64705,990.0,66,2020,10,14,2,0
103300,990.0,110,2018,5,11,4,0
61993,1100.0,57,2021,12,28,1,0
87462,1100.0,80,2022,1,3,0,0
40777,1100.0,39,2021,11,22,0,0
65340,990.0,66,2018,11,26,0,0
101062,990.0,104,2019,1,15,1,0
64880,1150.0,64,2019,12,2,0,0
49684,1050.0,48,2021,5,21,4,0
140830,990.0,153,2017,2,24,4,0
68250,1150.0,75,2019,5,23,3,0
48613,990.0,53,2020,9,27,6,1
71600,1100.0,71,2021,11,28,6,1
58680,990.0,62,2018,7,24,1,0
99990,990.0,101,2017,12,6,2,0
89010,990.0,93,2018,12,25,1,0
81984,1050.0,89,2021,3,18,3,0
71838,990.0,78,2017,9,3,6,1
54050,1150.0,47,2019,10,16,2,0
52560,990.0,55,2018,8,5,6,1
71850,1050.0,74,2021,10,2,5,1
75253,1150.0,80,2019,12,4,2,0
80190,990.0,81,2017,12,22,4,0
45750,1150.0,53,2019,5,7,1,0
92246,1100.0,94,2021,12,14,1,0
67320,990.0,68,2017,10,14,5,1
43550,1150.0,47,2019,9,24,1,0
68750,1050.0,69,2021,5,25,1,0
64634,1050.0,62,2021,5,4,1,0
104040,990.0,112,2017,11,10,4,0
84700,990.0,94,2017,10,24,1,0
77464,990.0,80,2020,10,16,4,0
73880,1150.0,84,2019,4,27,5,1
63954,990.0,70,2020,9,30,2,0
45540,990.0,46,2019,4,14,6,1
118450,1150.0,103,2019,11,2,5,1
92850,990.0,103,2020,11,28,5,1
79350,1150.0,83,2019,9,14,5,1
74070,990.0,77,2018,10,27,5,1
81180,990.0,82,2019,2,10,6,1
74880,990.0,78,2018,8,15,2,0
88650,990.0,91,2018,11,5,0,0
59400,990.0,60,2018,3,27,1,0
77040,990.0,83,2017,5,13,5,1
96956,990.0,99,2020,10,20,1,0
76230,990.0,77,2018,11,21,2,0
85770,990.0,89,2018,9,19,2,0
30690,1150.0,31,2020,5,18,0,0
50600,1150.0,44,2020,4,2,3,0
67320,990.0,70,2018,10,8,0,0
53460,990.0,54,2018,6,12,1,0
62110,990.0,65,2018,5,15,1,0
62370,990.0,63,2019,3,11,0,0
69902,1050.0,72,2021,9,5,6,1
39340,990.0,43,2017,5,9,1,0
81650,1150.0,71,2019,12,30,0,0
61880,990.0,65,2017,9,9,5,1
64980,990.0,68,2018,8,20,0,0
52250,1150.0,53,2019,8,7,2,0
41360,990.0,46,2017,6,13,1,0
20790,990.0,21,2020,6,6,5,1
92310,990.0,99,2020,12,21,0,0
51480,990.0,52,2018,3,21,2,0
89100,990.0,90,2017,4,8,5,1
62370,990.0,63,2017,12,20,2,0
79200,990.0,80,2018,3,6,1,0
26730,990.0,27,2020,6,25,3,0
86670,1050.0,92,2021,3,19,4,0
100350,990.0,103,2018,11,6,1,0
48510,990.0,49,2018,5,23,2,0
77090,990.0,80,2018,10,19,4,0
35190,990.0,37,2018,8,26,6,1
52050,1150.0,55,2019,9,26,3,0
54990,990.0,59,2017,11,28,1,0
70050,1150.0,67,2020,2,23,6,1
78220,990.0,84,2017,12,4,0,0
70290,990.0,71,2018,12,2,6,1
81900,1050.0,87,2021,9,14,1,0
84730,990.0,90,2017,11,24,4,0
64510,990.0,69,2020,12,18,4,0
76850,990.0,83,2017,3,30,3,0
63000,1050.0,60,2021,7,30,4,0
54450,990.0,55,2017,4,23,6,1
72630,990.0,75,2018,9,15,5,1
118800,990.0,120,2017,12,17,6,1
82475,990.0,90,2020,11,11,2,0
56430,990.0,57,2018,4,1,6,1
81537,990.0,86,2020,10,22,3,0
96500,990.0,104,2017,11,3,4,0
77220,1150.0,78,2020,5,15,4,0
99620,990.0,106,2018,2,12,0,0
40250,1050.0,41,2021,6,26,5,1
94900,990.0,102,2017,3,11,5,1
77220,990.0,78,2018,6,15,4,0
99990,990.0,101,2017,7,22,5,1
40900,1050.0,42,2021,6,23,2,0
59654,1050.0,57,2021,3,14,6,1
34350,1050.0,27,2021,7,6,1,0
82490,990.0,91,2021,1,6,2,0
80850,990.0,88,2017,11,29,2,0
51750,1150.0,45,2019,6,27,3,0
69690,990.0,75,2017,3,2,3,0
77400,1150.0,74,2020,2,28,4,0
42570,990.0,43,2018,6,10,6,1
47150,1150.0,41,2020,4,7,1,0
67920,990.0,72,2018,5,5,5,1
40590,1150.0,41,2020,5,11,0,0
45950,1150.0,47,2019,8,15,3,0
40400,1150.0,40,2019,9,29,6,1
62680,990.0,66,2017,8,24,3,0
55460,990.0,58,2018,4,18,2,0
76240,990.0,82,2017,11,11,5,1
26730,990.0,27,2020,6,8,0,0
71474,1100.0,73,2021,11,30,1,0
75900,1100.0,69,2021,10,28,3,0
97870,990.0,105,2017,11,25,5,1
43560,990.0,44,2019,3,25,0,0
83790,990.0,87,2018,7,20,4,0
69690,990.0,75,2021,1,8,4,0
87352,990.0,91,2019,1,9,2,0
60560,990.0,64,2018,4,26,3,0
79450,1150.0,77,2020,2,26,2,0
108143,990.0,113,2018,12,31,0,0
66874,1100.0,62,2021,12,31,4,0
32790,990.0,36,2017,5,14,6,1
68400,990.0,70,2018,7,6,4,0
58750,1150.0,65,2019,5,15,2,0
58650,990.0,65,2020,8,27,3,0
56430,990.0,57,2019,3,19,1,0
74490,990.0,81,2017,10,27,4,0
45320,990.0,50,2020,9,6,6,1
46530,990.0,48,2018,7,1,6,1
68431,990.0,72,2020,10,13,1,0
69000,1150.0,60,2019,11,3,6,1
86130,990.0,87,2018,11,29,3,0
71550,1150.0,68,2020,2,6,3,0
93060,990.0,94,2017,12,15,4,0
90329,1100.0,83,2022,1,4,1,0
42503,990.0,47,2020,9,19,5,1
74017,1050.0,77,2021,9,27,0,0
23500,1050.0,26,2021,4,4,6,1
40590,990.0,41,2020,6,7,6,1
69650,1150.0,63,2020,1,28,1,0
56590,990.0,61,2017,8,14,0,0
64260,990.0,67,2018,10,7,6,1
112050,990.0,115,2018,12,12,2,0
62820,990.0,64,2018,10,29,0,0
40700,1050.0,39,2021,7,26,0,0
88955,1100.0,81,2022,1,20,3,0
74550,1150.0,77,2019,8,23,4,0
97380,990.0,100,2018,12,11,1,0
59200,1150.0,64,2019,5,8,2,0
69404,990.0,72,2020,11,8,6,1
32220,990.0,36,2021,1,9,5,1
86250,1150.0,82,2020,2,21,4,0
47520,990.0,48,2020,8,17,0,0
65984,1100.0,61,2022,1,18,1,0
35870,990.0,37,2020,8,18,1,0
76710,1100.0,70,2022,1,10,0,0
83600,1100.0,76,2022,1,5,2,0
73760,1150.0,73,2019,7,30,1,0
50040,990.0,54,2017,8,22,1,0
71750,990.0,79,2020,12,2,2,0
70290,990.0,71,2019,2,17,6,1
68040,990.0,70,2018,5,17,3,0
35500,1150.0,34,2019,8,4,6,1
52500,1050.0,50,2021,7,21,2,0
74110,990.0,81,2020,9,16,2,0
68681,1050.0,72,2021,9,1,2,0
64818,1100.0,60,2022,1,19,2,0
85250,1150.0,95,2019,5,10,4,0
99982,990.0,105,2019,1,14,0,0
113300,1100.0,103,2022,1,13,3,0
121770,990.0,123,2017,12,29,4,0
67981,1100.0,67,2021,12,20,0,0
55328,990.0,59,2020,11,16,0,0
84150,990.0,85,2017,12,19,1,0
47881,990.0,52,2020,8,19,2,0
62370,990.0,63,2019,3,23,5,1
61589,1050.0,60,2021,2,15,0,0
79820,990.0,86,2017,11,21,1,0
45750,1050.0,48,2021,8,29,6,1
176273,990.0,184,2019,1,2,2,0
40000,1050.0,42,2021,6,7,0,0
45540,990.0,46,2019,4,2,1,0
79839,1100.0,82,2021,12,5,6,1
55350,990.0,57,2018,6,28,3,0
102400,1150.0,100,2019,11,29,4,0
45540,990.0,46,2018,6,11,0,0
56650,1150.0,59,2019,12,19,3,0
85100,1150.0,81,2020,2,4,1,0
62670,990.0,65,2018,4,5,3,0
74700,990.0,78,2018,4,24,1,0
93690,990.0,97,2018,10,14,6,1
80950,1150.0,85,2019,8,13,1,0
58650,1150.0,51,2020,1,12,6,1
89610,990.0,98,2017,1,14,5,1
51087,1050.0,50,2021,3,8,0,0
27720,990.0,28,2020,7,22,2,0
16830,990.0,17,2020,6,21,6,1
131670,990.0,133,2018,1,5,4,0
70608,1150.0,71,2019,9,7,5,1
70290,990.0,71,2017,12,9,5,1
61900,1150.0,66,2019,8,25,6,1
76230,990.0,77,2018,12,9,6,1
76860,990.0,80,2018,10,24,2,0
93060,990.0,94,2018,11,24,5,1
90090,990.0,91,2017,10,8,6,1
59057,990.0,62,2018,8,27,0,0
62413,990.0,71,2020,9,25,4,0
106140,990.0,117,2017,11,15,2,0
46534,1050.0,45,2021,5,8,5,1
19800,990.0,20,2020,7,19,6,1
51550,1150.0,49,2019,8,17,5,1
77970,990.0,83,2018,2,6,1,0
82640,990.0,90,2017,12,3,6,1
46040,990.0,49,2017,6,19,0,0
47970,990.0,49,2018,8,19,6,1
40133,990.0,43,2020,10,3,5,1
73710,990.0,77,2018,4,28,5,1
36780,990.0,38,2018,5,22,1,0
104778,1100.0,96,2021,10,8,4,0
46530,990.0,47,2017,6,29,3,0
86980,990.0,94,2020,11,30,0,0
84548,1100.0,81,2021,11,27,5,1
88100,1150.0,86,2019,8,1,3,0
35650,1150.0,31,2019,11,9,5,1
118800,990.0,120,2018,1,2,1,0
64350,990.0,65,2019,2,16,5,1
64088,990.0,71,2020,12,3,3,0
69108,1150.0,70,2019,9,21,5,1
105030,990.0,113,2017,11,17,4,0
76399,1050.0,73,2021,5,6,3,0
37950,1150.0,33,2020,3,24,1,0
29900,1150.0,26,2019,6,23,6,1
47202,1050.0,50,2021,6,21,0,0
31785,1050.0,35,2021,4,2,4,0
90160,990.0,95,2020,11,5,3,0
73260,990.0,74,2017,12,23,5,1
95940,990.0,99,2018,12,18,1,0
101503,1150.0,101,2019,12,17,1,0
83160,990.0,84,2017,10,13,4,0
63900,990.0,66,2018,8,31,4,0
100556,1150.0,105,2019,12,13,4,0
72270,990.0,73,2017,9,25,0,0
35650,1150.0,31,2020,4,5,6,1
66850,1050.0,69,2021,9,20,0,0
68310,990.0,69,2018,11,12,0,0
74250,990.0,75,2018,6,6,2,0
38285,1050.0,41,2021,3,30,1,0
64620,990.0,66,2018,9,4,1,0
69470,990.0,73,2018,1,29,0,0
32670,1150.0,33,2020,4,24,4,0
74840,1150.0,78,2019,9,28,5,1
133400,990.0,135,2019,2,23,5,1
42550,1150.0,37,2020,3,28,5,1
37800,1050.0,36,2021,5,22,5,1
40700,1050.0,39,2021,7,25,6,1
50270,990.0,55,2020,9,15,1,0
73050,1150.0,69,2020,2,17,0,0
60210,990.0,62,2018,10,21,6,1
65340,990.0,66,2017,7,19,2,0
111750,1150.0,106,2020,2,14,4,0
85100,1150.0,74,2020,1,16,3,0
63540,990.0,66,2018,10,1,0,0
56740,990.0,60,2017,5,17,2,0
61380,990.0,62,2017,7,18,1,0
50220,990.0,52,2018,10,10,2,0
48300,1100.0,44,2021,10,12,1,0
96030,990.0,97,2017,7,14,4,0
82930,990.0,89,2018,2,22,3,0
85253,1050.0,83,2021,2,16,1,0
34650,990.0,35,2020,8,3,0,0
76050,1150.0,71,2019,11,16,5,1
72810,990.0,75,2018,6,27,2,0
61380,990.0,62,2017,10,16,0,0
55440,990.0,56,2018,6,23,5,1
106020,990.0,111,2019,1,6,6,1
63090,990.0,65,2019,1,28,0,0
43800,1050.0,44,2021,7,12,0,0
69988,1100.0,64,2022,1,22,5,1
27934,1050.0,28,2021,3,13,5,1
65550,1050.0,67,2021,6,2,2,0
87060,990.0,96,2017,1,19,3,0
64710,990.0,68,2018,10,9,1,0
85140,990.0,86,2018,3,12,0,0
48823,990.0,50,2020,10,11,6,1
55750,1150.0,57,2019,8,21,2,0
54500,1150.0,62,2019,4,25,3,0
62400,1100.0,57,2021,10,17,6,1
86130,990.0,87,2018,3,23,4,0
35420,990.0,40,2020,12,5,5,1
35584,1050.0,37,2021,4,11,6,1
91080,990.0,92,2018,11,8,3,0
109890,990.0,111,2019,1,31,3,0
71300,1150.0,62,2019,11,4,0,0
53460,990.0,54,2018,3,17,5,1
46800,1150.0,48,2019,9,9,0,0
53320,990.0,60,2021,1,1,4,0
98171,990.0,102,2018,12,27,3,0
93323,1050.0,90,2021,2,19,4,0
16830,990.0,17,2020,7,18,5,1
79200,990.0,80,2019,3,5,1,0
66257,1050.0,64,2021,2,13,5,1
96270,990.0,103,2017,1,5,3,0
68760,990.0,72,2018,4,25,2,0
62293,1050.0,60,2021,2,27,5,1
75240,990.0,76,2019,2,27,2,0
48510,990.0,49,2019,4,8,0,0
54400,1050.0,56,2021,6,10,3,0
56600,1150.0,52,2020,4,14,1,0
105150,1150.0,103,2020,2,22,5,1
55450,990.0,61,2017,11,7,1,0
90560,990.0,96,2018,5,3,3,0
38974,990.0,40,2020,10,12,0,0
58908,1150.0,66,2019,5,29,2,0
85140,990.0,86,2018,11,25,6,1
56170,990.0,59,2018,5,7,0,0
63900,990.0,66,2018,7,14,5,1
101570,990.0,112,2017,2,18,5,1
75900,1050.0,70,2021,7,15,3,0
67050,990.0,69,2018,9,6,3,0
67542,1050.0,65,2021,2,10,2,0
88355,1100.0,90,2021,12,1,2,0
62460,990.0,66,2018,7,16,0,0
74490,990.0,81,2021,1,26,1,0
79600,1100.0,82,2021,12,7,1,0
78650,1150.0,91,2019,5,24,4,0
84010,990.0,91,2017,1,31,1,0
64500,1050.0,66,2021,9,9,3,0
27731,1050.0,31,2021,4,19,0,0
39600,990.0,41,2018,7,9,0,0
92070,990.0,93,2019,2,4,0,0
71224,990.0,79,2020,11,21,5,1
72600,1150.0,68,2020,3,5,3,0
70290,990.0,71,2019,2,15,4,0
41040,990.0,44,2017,5,11,3,0
95310,990.0,100,2018,9,29,5,1
70830,990.0,73,2018,7,11,2,0
140700,1150.0,162,2019,4,30,1,0
71950,1150.0,65,2020,1,30,3,0
48510,990.0,49,2018,4,2,0,0
35720,990.0,38,2017,6,14,2,0
71500,1100.0,65,2021,11,2,1,0
63830,990.0,71,2021,1,13,2,0
79371,990.0,85,2020,9,11,4,0
83950,1150.0,73,2020,1,4,5,1
90030,990.0,99,2017,2,12,6,1
50278,1050.0,49,2021,3,6,5,1
93150,1150.0,81,2019,6,6,3,0
51950,1050.0,52,2021,10,5,1,0
85501,1050.0,83,2021,2,18,3,0
59400,990.0,60,2017,10,10,1,0
60000,1150.0,60,2019,7,24,2,0
47352,1050.0,49,2021,6,19,5,1
45900,1150.0,42,2019,8,19,0,0
73343,990.0,84,2020,9,26,5,1
59800,1150.0,52,2019,10,27,6,1
26730,990.0,27,2020,7,14,1,0
37850,990.0,39,2017,6,21,2,0
55300,1100.0,53,2021,11,10,2,0
54719,1050.0,45,2021,5,23,6,1
83300,1150.0,84,2019,12,5,3,0
39650,1150.0,43,2019,9,25,2,0
103920,1100.0,95,2022,1,29,5,1
47450,990.0,51,2017,8,28,0,0
68490,990.0,73,2018,2,7,2,0
40320,990.0,42,2018,8,21,1,0
110520,990.0,114,2018,10,31,2,0
35640,990.0,36,2018,5,29,1,0
96700,1150.0,92,2020,2,8,5,1
100180,990.0,106,2018,1,16,1,0
70350,1150.0,69,2019,7,14,6,1
62990,990.0,69,2020,9,3,3,0
71600,990.0,80,2017,6,6,1,0
63913,990.0,67,2020,10,24,5,1
36800,1150.0,32,2019,6,11,1,0
72450,1150.0,63,2019,11,6,2,0
48150,1150.0,45,2019,7,16,1,0
37620,1150.0,38,2020,5,17,6,1
70947,990.0,72,2018,6,16,5,1
27050,1050.0,26,2021,8,18,2,0
84150,990.0,85,2019,2,6,2,0
44550,990.0,45,2020,7,10,4,0
67200,1150.0,70,2019,10,2,2,0
65150,1150.0,65,2019,8,10,5,1
19800,990.0,20,2020,6,29,0,0
47768,990.0,51,2020,11,12,3,0
30690,1150.0,31,2020,5,8,4,0
69282,1050.0,70,2021,2,2,1,0
71800,1150.0,74,2019,9,11,2,0
45540,990.0,46,2019,3,26,1,0
86550,1150.0,85,2019,11,28,3,0
77220,990.0,78,2018,11,17,5,1
44550,990.0,45,2019,3,13,2,0
34500,1150.0,30,2020,3,27,4,0
71740,990.0,76,2018,2,15,3,0
53316,1150.0,55,2019,9,22,6,1
54990,990.0,59,2017,8,27,6,1
63750,990.0,69,2017,10,25,2,0
76230,990.0,77,2017,7,21,4,0
94321,990.0,99,2018,1,12,4,0
35640,1150.0,36,2020,5,26,1,0
59400,990.0,60,2017,4,10,0,0
100980,990.0,102,2018,11,19,0,0
61830,990.0,64,2018,10,11,3,0
109890,990.0,111,2017,4,21,4,0
93060,990.0,94,2017,6,30,4,0
57780,990.0,60,2018,9,16,6,1
48635,990.0,52,2020,10,4,6,1
63000,990.0,64,2018,9,24,0,0
21750,990.0,24,2020,9,12,5,1
52600,1100.0,51,2021,11,15,0,0
73650,990.0,79,2017,6,9,4,0
53850,1086.0,50,2021,10,7,3,0
43680,990.0,47,2017,5,16,1,0
69750,990.0,73,2018,5,2,2,0
69000,1150.0,60,2019,6,8,5,1
103510,990.0,113,2017,2,22,2,0
32670,990.0,33,2020,6,11,3,0
23760,990.0,24,2020,6,28,6,1
54990,990.0,59,2017,11,27,0,0
75460,1150.0,78,2019,8,28,2,0
108502,990.0,112,2019,1,8,1,0
73980,990.0,76,2019,1,26,5,1
31050,1150.0,27,2019,10,22,1,0
83139,990.0,93,2021,1,12,1,0
58057,1050.0,60,2021,3,9,1,0
99930,990.0,109,2017,1,23,0,0
89100,990.0,90,2019,2,25,0,0
78810,990.0,83,2018,4,20,4,0
87030,990.0,90,2018,9,2,6,1
90500,1050.0,87,2021,8,20,4,0
50490,1150.0,51,2020,4,17,4,0
66655,1100.0,68,2021,12,4,5,1
79970,990.0,85,2017,10,18,2,0
75840,990.0,80,2018,4,14,5,1
62190,990.0,64,2018,8,29,2,0
71750,990.0,79,2017,3,8,2,0
99000,990.0,100,2018,3,29,3,0
91710,1100.0,90,2021,11,25,3,0
64400,1150.0,56,2019,11,8,4,0
37400,1100.0,34,2021,12,26,6,1
43530,990.0,48,2020,8,29,5,1
56590,990.0,61,2017,5,25,3,0
48871,1050.0,53,2021,6,12,5,1
86850,990.0,89,2018,12,19,2,0
46000,1150.0,40,2020,3,20,4,0
67358,990.0,76,2020,9,29,1,0
58214,990.0,60,2020,10,7,2,0
43560,990.0,44,2018,6,18,0,0
72150,1150.0,67,2020,2,20,3,0
99000,990.0,100,2018,11,15,3,0
85220,990.0,88,2017,3,31,4,0
46610,990.0,49,2017,8,11,4,0
46530,990.0,47,2020,8,1,5,1
94850,1150.0,91,2020,2,7,4,0
64230,990.0,67,2018,4,19,3,0
56700,990.0,58,2018,9,17,0,0
28700,1050.0,30,2021,4,26,0,0
69737,1050.0,68,2021,2,26,4,0
60173,1050.0,58,2021,2,3,2,0
44600,1050.0,47,2021,7,10,5,1
67920,990.0,72,2018,2,26,0,0
56430,990.0,57,2019,4,12,4,0
52020,990.0,56,2017,5,22,0,0
41320,990.0,44,2018,4,9,0,0
80500,1150.0,70,2019,7,2,1,0
27720,990.0,28,2017,4,16,6,1
72280,990.0,78,2020,12,14,0,0
58100,1050.0,59,2021,7,13,1,0
100382,1100.0,93,2022,1,1,5,1
86400,1150.0,84,2019,8,2,4,0
16100,1150.0,14,2020,3,21,5,1
53850,990.0,59,2020,12,13,6,1
64170,990.0,66,2018,9,7,4,0
65650,1150.0,65,2020,2,24,0,0
79820,990.0,86,2020,12,15,1,0
77400,1150.0,74,2020,3,12,3,0
30160,990.0,32,2020,11,19,3,0
51250,1150.0,47,2019,11,13,2,0
65340,990.0,66,2018,6,4,0,0
17820,990.0,18,2020,6,13,5,1
86180,990.0,93,2017,2,19,6,1
73617,1016.0,79,2021,1,28,3,0
8400,1050.0,8,2021,4,3,5,1
134890,990.0,147,2017,2,23,3,0
71300,1150.0,62,2020,1,7,1,0
74944,990.0,80,2020,11,14,5,1
35340,990.0,38,2020,8,22,5,1
39600,990.0,40,2019,3,31,6,1
79756,1100.0,73,2021,12,24,4,0
98370,990.0,102,2018,10,3,2,0
79150,1150.0,74,2020,3,13,4,0
114550,1150.0,113,2019,11,18,0,0
45485,1050.0,44,2021,4,28,2,0
75600,1050.0,72,2021,8,1,6,1
38950,1150.0,37,2019,8,16,4,0
77460,990.0,84,2017,1,26,3,0
47600,990.0,50,2017,3,19,6,1
74870,990.0,81,2017,9,7,3,0
63450,1050.0,65,2021,6,3,3,0
40590,990.0,41,2020,6,5,4,0
90560,990.0,98,2020,12,30,2,0
70660,1150.0,72,2019,8,29,3,0
56430,990.0,57,2017,10,1,6,1
35650,1150.0,31,2019,10,14,0,0
67687,990.0,74,2017,8,30,2,0
42550,1150.0,37,2019,6,26,2,0
80050,990.0,87,2017,11,8,2,0
62150,1150.0,65,2019,9,13,4,0
75450,1150.0,72,2019,12,15,6,1
73172,990.0,77,2017,8,31,3,0
109670,990.0,117,2018,1,31,2,0
92617,1050.0,90,2021,2,11,3,0
42000,1050.0,40,2021,5,18,1,0
41000,1050.0,44,2021,9,21,1,0
32600,1150.0,32,2019,12,24,1,0
49350,1050.0,47,2021,8,2,0,0
67716,1100.0,62,2021,11,3,2,0
39100,1150.0,34,2020,3,26,3,0
68310,990.0,69,2017,10,7,5,1
47250,1050.0,45,2021,7,27,1,0
76860,990.0,80,2018,8,10,4,0
99990,990.0,101,2019,2,5,1,0
60390,990.0,61,2017,10,2,0,0
85600,990.0,90,2018,1,15,0,0
52210,990.0,56,2017,11,4,5,1
107770,990.0,115,2017,3,4,5,1
99000,990.0,100,2017,9,19,1,0
70004,1050.0,68,2021,5,7,4,0
80920,990.0,84,2018,5,19,5,1
68803,1150.0,68,2019,12,1,6,1
74200,1150.0,70,2020,2,11,1,0
60390,990.0,61,2019,4,1,0,0
56250,1050.0,57,2021,6,17,3,0
46990,990.0,49,2017,9,11,0,0
75095,990.0,77,2018,12,17,0,0
37918,1050.0,37,2021,5,2,6,1
64050,990.0,67,2017,8,4,4,0
65700,1150.0,78,2019,5,27,0,0
73012,1050.0,72,2021,2,17,2,0
53806,1050.0,59,2021,4,13,1,0
77131,990.0,85,2020,12,17,3,0
74110,990.0,81,2017,11,23,3,0
52980,1150.0,54,2020,5,7,3,0
67634,1050.0,72,2021,3,17,2,0
82180,990.0,88,2017,3,10,4,0
42550,1150.0,37,2019,6,16,6,1
57200,1100.0,52,2021,10,19,1,0
53460,1150.0,54,2020,4,27,0,0
95500,990.0,100,2018,2,2,4,0
44550,990.0,45,2020,7,28,1,0
79900,990.0,88,2017,3,6,0,0
73050,1150.0,83,2019,5,6,0,0
96834,1150.0,96,2020,2,15,5,1
62809,990.0,65,2020,10,17,5,1
110880,990.0,112,2017,12,31,6,1
66190,990.0,73,2017,5,10,2,0
103950,990.0,105,2019,2,1,4,0
66330,990.0,67,2018,3,18,6,1
41420,1150.0,42,2020,5,4,0,0
72267,1100.0,67,2021,10,31,6,1
69300,1100.0,63,2021,10,24,6,1
41916,1150.0,38,2019,11,11,0,0
19800,990.0,20,2020,6,3,2,0
38850,1050.0,37,2021,5,12,2,0
79560,990.0,83,2018,7,19,3,0
103950,990.0,105,2018,12,5,2,0
84667,990.0,90,2017,9,1,4,0
65390,1150.0,57,2020,1,6,0,0
57420,990.0,58,2019,4,11,3,0
103494,990.0,105,2020,10,30,4,0
58550,1050.0,56,2021,8,5,3,0
111870,990.0,113,2017,12,27,2,0
26500,1022.0,30,2020,6,2,1,0
125730,990.0,127,2018,1,6,5,1
65194,1050.0,63,2021,2,6,5,1
68310,990.0,69,2019,3,7,3,0
56350,1150.0,49,2019,10,29,1,0
